{
	"3601650407":
	[
		{
			"type": "group",
			"name": "Ålands Crypto",
			"description": "Diskuterar cryptovalutor för nybörjare likväl som veteraner.",

			"contact:signal": "sgnl://signal.group/#CjQKIO2ujZIoMzt8HvwspOKz9lZr5EGNChHtXc-Xy7RSfg5DEhAU7oWp6ZMg-qduUMd77_am"
		},
		{
			"type": "support",
			"name": "Jonathan Silverblood",
			"description": "Erbjuder teknisk support och hjälper till med uppstart för företag som vill ta emot Bitcoin Cash.",

			"phone": "+46 (0) 708 888909",
			"email": "bitcoincash@monsterbitar.se"
		}
	],
	"3600051684":
	[
		{
			"type": "support",
			"name": "Txar",

			"contact:facebook": "https://facebook.com/txar.ivmmc",
			"contact:twitter": "https://twitter.com/txariv",
			"email": "txariv@gmail.com"
		}
	],
	"3600014296":
	[
		{
			"type": "support",
			"name": "Txar",

			"contact:facebook": "https://facebook.com/txar.ivmmc",
			"contact:twitter": "https://twitter.com/txariv",
			"email": "txariv@gmail.com"
		}
	],
	"3600935611":
	[
		{
			"type": "group",
			"name": "Bitgänget",
			"description": "Diskuterar Bitcoin och kryptovalutor över en bit mat.",

			"phone": "076 076 39 45"
		},
		{
			"type": "event",
			"name": "Bitcoinmöte",
			"description": "Träffas över en middag på krogen 'The Elephant'.",

			"phone": "076 076 39 45",
			"timestamp": "1569771000"
		}
	],
	"3608374953":
	[
		{
			"type": "business",
			"name": "Peter Hopkins",
			"phone": "0432 282 297"
		}
	],
	"3601473946":
	[
		{
			"type": "group",
			"name": "ביטקוינרים ישראליים",
			"description": "שיח בנושא כסף אלקטרוני שיתופי למשתמשים חדשים וותיקים ותיאום פעילות קידום והסברה",

			"contact:signal": "https://signal.group/#CjQKIDnhg1n0WpwHXxHO7IviMitDUXNDLcOGaubo5V6YEKJ7EhDhs9DpZl_GqxgAW6KNFmEu"
		}
	]
}
