{
  "version": 0.6,
  "generator": "Overpass API 0.7.55.7 8b86ff77",
  "osm3s": {
    "timestamp_osm_base": "2019-08-19T04:17:02Z",
    "copyright": "The data included in this document is from www.openstreetmap.org. The data is made available under ODbL."
  },
  "elements": [

{
  "type": "node",
  "id": 2531908405,
  "lat": 40.6672631,
  "lon": 16.6042136,
  "tags": {
    "addr:city": "Matera",
    "addr:housenumber": "50",
    "addr:postcode": "75100",
    "addr:street": "Via Roma",
    "amenity": "fast_food",
    "cuisine": "italian;fastfood",
    "name": "Goody's",
    "operator": "Ashley Carlucci",
    "payment:bitcoin": "yes",
    "payment:bitcoincash": "yes",
    "payment:dash": "yes",
    "payment:ethereum": "yes",
    "payment:groestlcoin": "yes",
    "payment:litecoin": "yes",
    "payment:navcoin": "yes"
  }
},
{
  "type": "node",
  "id": 5415434959,
  "lat": 40.7284734,
  "lon": -73.9834055,
  "tags": {
    "addr:housenumber": "261",
    "addr:postcode": "10009",
    "addr:street": "East 10th Street",
    "amenity": "bar",
    "delivery": "yes",
    "drink:beer": "no",
    "drink:coffee": "yes",
    "drink:tea": "yes",
    "drink:wine": "no",
    "name": "Kavasutra Kava Bar",
    "opening_hours": "Mo-Su 10:00-02:00",
    "payment:american_express": "yes",
    "payment:apple_pay": "yes",
    "payment:bitcoin": "yes",
    "payment:bitcoincash": "yes",
    "payment:discover_card": "yes",
    "payment:ethereum": "yes",
    "payment:google_pay": "yes",
    "payment:litecoin": "yes",
    "payment:mastercard": "yes",
    "payment:paypal": "yes",
    "payment:visa": "yes",
    "phone": "+1-646-649-4214",
    "website": "https://kavasutra.com/pages/kavasutra-new-york"
  }
},
{
  "type": "node",
  "id": 5678503565,
  "lat": -19.9687512,
  "lon": -43.9647987,
  "tags": {
    "description": "Educação e Consultoria sobre Criptmoedas, Blockhain e Tecnologias de Registro Distribuído",
    "email": "libero.crypto@gmail.com",
    "name": "Líbero Consultoria em Criptmoedas e Blockhain",
    "payment:bitcoin": "yes",
    "payment:bitcoincash": "yes",
    "payment:dash": "yes",
    "payment:ethereum": "yes",
    "payment:litecoin": "yes",
    "payment:monero": "yes"
  }
},
{
  "type": "node",
  "id": 5720791527,
  "lat": 34.0738473,
  "lon": -117.8849349,
  "tags": {
    "addr:city": "West Covina",
    "addr:housenumber": "2753",
    "addr:postcode": "91791",
    "addr:state": "CA",
    "addr:street": "East Eastland Center Drive",
    "amenity": "bank",
    "atm": "yes",
    "drive_through": "no",
    "email": "support@athenabitcoin.com",
    "name": "Athena Bitcoin Inc.",
    "opening_hours": "24/7",
    "operator": "Athena Bitcoin ATM",
    "payment:bitcoin": "yes",
    "payment:bitcoincash": "yes",
    "payment:litecoin": "yes",
    "phone": "+1-312-690-4466",
    "website": "https://www.athenabitcoin.com"
  }
},
{
  "type": "node",
  "id": 5720865351,
  "lat": 33.7647594,
  "lon": -118.1945055,
  "tags": {
    "addr:city": "Long Beach",
    "addr:housenumber": "95",
    "addr:postcode": "90802",
    "addr:state": "CA",
    "addr:street": "South Pine Avenue",
    "amenity": "bank",
    "atm": "yes",
    "drive_through": "no",
    "email": "support@athenabitcoin.com",
    "name": "Athena Bitcoin Inc.",
    "opening_hours": "Monday - Thursday 11am-9pm Saturday-Sunday 11am - 9pm Sunday 11am-7pm",
    "operator": "Athena Bitcoin ATM",
    "payment:bitcoin": "yes",
    "payment:bitcoincash": "yes",
    "payment:litecoin": "yes",
    "phone": "+1-312-690-4466",
    "website": "http://Athenabitcoin.com/"
  }
},
{
  "type": "node",
  "id": 5769334245,
  "lat": 4.6944116,
  "lon": -74.0653218,
  "tags": {
    "addr:city": "Bogota",
    "addr:housenumber": "56 - 62 Of 503",
    "addr:postcode": "111111",
    "addr:street": "Calle 106",
    "email": "jmontes@mwabogados.com",
    "name": "Montes & Warren S.A.S.",
    "office": "lawyer",
    "opening_hours": "Mo-Sa 08:00-18:00",
    "payment:bitcoin": "yes",
    "payment:bitcoincash": "yes",
    "payment:cash": "yes",
    "payment:coins": "yes",
    "payment:cryptocurrencies": "yes",
    "payment:electronic_purses": "yes",
    "payment:ethereum": "yes",
    "payment:ripples": "yes",
    "phone": "+573183437279",
    "website": "www.mwabogados.net"
  }
},
{
  "type": "node",
  "id": 6722156578,
  "lat": -19.2478598,
  "lon": 146.8126157,
  "tags": {
    "amenity": "restaurant",
    "name": "The Watermark",
    "payment:bitcoincash": "yes"
  }
}

  ]
}
